[2014-11-05 11:52:56][ERROR] - Assert Text error: 'Контекстная реклама (PPC)' in class 'class XBSoftware_RU_Tests.ServicesRUTest' method 'servicesReadMorePPC'
[2014-11-05 11:57:52][ERROR] - Not found 'By.xpath: //input[@value='Заказать услугу по веб-аналитике сайта']' in class 'class XBSoftware_RU_Tests.ServicesRUTest' method 'requestWEbAnalistics'
[2014-11-05 11:57:53][ERROR] - Assert Text error: 'Поле, обязательное для заполнения' in class 'class XBSoftware_RU_Tests.ServicesRUTest' method 'requestWEbAnalistics'
[2014-11-05 11:58:42][ERROR] - Not found 'By.xpath: //input[@value='Заказать услугу по веб-аналитике сайта']' in class 'class XBSoftware_RU_Tests.ServicesRUTest' method 'requestWEbAnalistics'
[2014-11-05 11:58:43][ERROR] - Assert Text error: 'Поле, обязательное для заполнения' in class 'class XBSoftware_RU_Tests.ServicesRUTest' method 'requestWEbAnalistics'
[2014-11-05 12:02:53][ERROR] - Not found 'By.selector: a[href='/uslugi/poiskovaja-optimizatsija/']' in class 'class XBSoftware_RU_Tests.ServicesRUTest' method 'servicesReadMoreSEO'
